\relax 
\@writefile{lof}{\contentsline {figure}{\numberline {1}{\ignorespaces  Controlled spread of disease \relax }}{1}\protected@file@percent }
\providecommand*\caption@xref[2]{\@setref\relax\@undefined{#1}}
\newlabel{fig::Figure 1}{{1}{1}}
\@writefile{lof}{\contentsline {figure}{\numberline {2}{\ignorespaces  Controlled spread of disease \relax }}{2}\protected@file@percent }
\newlabel{fig::Figure 2}{{2}{2}}
\@writefile{lol}{\contentsline {lstlisting}{Final\textunderscore Question1\textunderscore Python\textunderscore 300119185.py}{2}\protected@file@percent }
\@writefile{toc}{\contentsline {paragraph}{}{3}\protected@file@percent }
\@writefile{lol}{\contentsline {lstlisting}{output\textunderscore python.txt}{3}\protected@file@percent }
\@writefile{lol}{\contentsline {lstlisting}{output\textunderscore python.txt}{3}\protected@file@percent }
\@writefile{lof}{\contentsline {figure}{\numberline {3}{\ignorespaces  System at $t = 500$\relax }}{3}\protected@file@percent }
\newlabel{fig::Figure 3 a)}{{3}{3}}
\@writefile{lof}{\contentsline {figure}{\numberline {4}{\ignorespaces  System at $t = 3000$ \relax }}{3}\protected@file@percent }
\newlabel{fig::Figure 3 b)}{{4}{3}}
\@writefile{lof}{\contentsline {figure}{\numberline {5}{\ignorespaces  System at $t = 500$\relax }}{3}\protected@file@percent }
\newlabel{fig::Figure 2 a)}{{5}{3}}
\@writefile{toc}{\contentsline {paragraph}{}{3}\protected@file@percent }
\@writefile{lof}{\contentsline {figure}{\numberline {6}{\ignorespaces  System at $t = 500$\relax }}{3}\protected@file@percent }
\newlabel{fig::Figure 3 a)}{{6}{3}}
\@writefile{lof}{\contentsline {figure}{\numberline {7}{\ignorespaces  System at $t = 3000$ \relax }}{3}\protected@file@percent }
\newlabel{fig::Figure 3 b)}{{7}{3}}
\@writefile{lof}{\contentsline {figure}{\numberline {8}{\ignorespaces  System at $t = 500$\relax }}{3}\protected@file@percent }
\newlabel{fig::Figure 2 a)}{{8}{3}}
\@writefile{lol}{\contentsline {lstlisting}{output\textunderscore python.txt}{4}\protected@file@percent }
\@writefile{lol}{\contentsline {lstlisting}{Final\textunderscore Question1\textunderscore Python\textunderscore 300119185.py}{6}\protected@file@percent }
