\relax 
\@writefile{lof}{\contentsline {figure}{\numberline {1}{\ignorespaces  Concentration profiles over time \relax }}{4}\protected@file@percent }
\providecommand*\caption@xref[2]{\@setref\relax\@undefined{#1}}
\newlabel{Figure 4}{{1}{4}}
\@writefile{lof}{\contentsline {figure}{\numberline {2}{\ignorespaces  System at $t = 500$\relax }}{4}\protected@file@percent }
\newlabel{fig::Figure 3 a)}{{2}{4}}
\@writefile{lof}{\contentsline {figure}{\numberline {3}{\ignorespaces  System at $t = 3000$ \relax }}{4}\protected@file@percent }
\newlabel{fig::Figure 3 b)}{{3}{4}}
\@writefile{lof}{\contentsline {figure}{\numberline {4}{\ignorespaces  System at $t = 500$\relax }}{4}\protected@file@percent }
\newlabel{fig::Figure 2 a)}{{4}{4}}
\@writefile{toc}{\contentsline {paragraph}{}{5}\protected@file@percent }
\@writefile{lol}{\contentsline {lstlisting}{Final\textunderscore Question3\textunderscore Octave\textunderscore 300119185.m}{6}\protected@file@percent }
